{
    "KPlugin": {
        "Authors": [
            {
                "Email": "subdiff@gmail.com",
                "Name": "Roman Gilg"
            }
        ],
        "Description": "Adjust color temperatur at night to reduce eye strain",
        "Description[ar]": "اضبط حرارة اللون في المساء لتخفيف العبء على العين",
        "Description[ca@valencia]": "Ajusta la temperatura del color per a la nit per reduir la tensió ocular.",
        "Description[ca]": "Ajusta la temperatura del color per a la nit per reduir la tensió ocular.",
        "Description[da]": "Justér farvetemperaturen om natten for at reducere belastning af øjnene",
        "Description[en_GB]": "Adjust colour temperature at night to reduce eye strain",
        "Description[es]": "Ajustar la temperatura del color durante la noche para reducir la fatiga visual",
        "Description[eu]": "Egokitu kolore tenperatura gauean begien nekea gutxitzeko",
        "Description[fi]": "Säädä värilämpötilaa yöllä silmien rasituksen vähentämiseksi",
        "Description[fr]": "Ajuster la température des couleurs durant la nuit pour réduire la fatigue des yeux",
        "Description[gl]": "Axustar a temperatura da cor pola noite para reducir o esgotamento dos ollos.",
        "Description[id]": "Sesuaikan temperatur warna saat malam hari untuk mengurangi ketegangan mata",
        "Description[it]": "Regola la temperatura dei colori di notte per ridurre l'affaticamento degli occhi",
        "Description[nl]": "Kleurtemperatuur bij nacht aanpassen on vermoeidheid van de ogen te vermijden",
        "Description[nn]": "Juster fargetemperaturen ved kveldstid for å gjera det mindre anstrengjande for auga",
        "Description[pl]": "Dostosuj temperaturę barwy w nocy, aby zmniejszyć wytężenie oka",
        "Description[pt]": "Ajusta a temperatura da cor à noite para reduzir o cansaço dos olhos",
        "Description[pt_BR]": "Ajustar a temperatura de cor a noite para reduzir a tensão visual",
        "Description[sl]": "Prilagodite barvno temperaturo, da ponoči zmanjšate naprezanje oči",
        "Description[sr@ijekavian]": "Подесите температуру боје током ноћи ради мањег напрезања очију",
        "Description[sr@ijekavianlatin]": "Podesite temperaturu boje tokom noći radi manjeg naprezanja očiju",
        "Description[sr@latin]": "Podesite temperaturu boje tokom noći radi manjeg naprezanja očiju",
        "Description[sr]": "Подесите температуру боје током ноћи ради мањег напрезања очију",
        "Description[sv]": "Justera färgtemperatur på natten för att reducera ögonbelastning",
        "Description[uk]": "Коригування температури кольорів для зменшення навантаження на очі вночі",
        "Description[x-test]": "xxAdjust color temperatur at night to reduce eye strainxx",
        "Description[zh_CN]": "在夜间调整色温以减少视觉疲劳",
        "Icon": "preferences-desktop",
        "Id": "kcm_nightcolor",
        "License": "GPL",
        "Name": "Night Color",
        "Name[ar]": "لون المساء",
        "Name[ca@valencia]": "Color de nit",
        "Name[ca]": "Color de nit",
        "Name[da]": "Natfarver",
        "Name[de]": "Nachtfarben",
        "Name[en_GB]": "Night Colour",
        "Name[es]": "Color nocturno",
        "Name[eu]": "Gaueko kolorea",
        "Name[fi]": "Yöväri",
        "Name[fr]": "Couleur de nuit",
        "Name[gl]": "Cor de noite",
        "Name[id]": "Warna Malam",
        "Name[it]": "Colore notturno",
        "Name[nl]": "Nachtkleur",
        "Name[nn]": "Nattfargar",
        "Name[pa]": "ਰਾਤ ਦਾ ਰੰਗ",
        "Name[pl]": "Barwa nocy",
        "Name[pt]": "Cor Nocturna",
        "Name[pt_BR]": "Cor noturna",
        "Name[sl]": "Nočne barve",
        "Name[sr@ijekavian]": "Ноћна боја",
        "Name[sr@ijekavianlatin]": "Noćna boja",
        "Name[sr@latin]": "Noćna boja",
        "Name[sr]": "Ноћна боја",
        "Name[sv]": "Nattfärg",
        "Name[uk]": "Нічні кольори",
        "Name[x-test]": "xxNight Colorxx",
        "Name[zh_CN]": "夜晚颜色",
        "ServiceTypes": [
            "Plasma/Generic"
        ],
        "Version": "",
        "Website": ""
    },
    "Keywords": "",
    "X-KDE-ParentApp": "",
    "X-Plasma-API": "declarativeappletscript",
    "X-Plasma-MainScript": "ui/main.qml",
    "X-Plasma-RemoteLocation": ""
}
