{
    "KPlugin": {
        "Authors": [
            {
                "Email": "hein@kde.org",
                "Name": "Eike Hein"
            }
        ],
        "Category": "Application Launchers",
        "Dependencies": [
        ],
        "Description": "A launcher based on cascading popup menus",
        "Description[ar]": "مطلق مبنيّ على قوائم منبثقة متتالية",
        "Description[bs]": "Pokretač baziran na kaskadnim iskakajucim menijima",
        "Description[ca@valencia]": "Un llançador basat en menús emergents en cascada",
        "Description[ca]": "Un llançador basat en menús emergents en cascada",
        "Description[cs]": "Spouštěč založený na vyskakovacích nabídkách v kaskádě",
        "Description[da]": "En starter baseret på pop op-menuer i kaskader",
        "Description[de]": "Ein Anwendungsstarter auf der Grundlage von kaskadierenden Aufklappmenüs",
        "Description[el]": "Εκτελεστής βασισμένος σε επικαλυπτόμενα αναδυόμενα μενού",
        "Description[en_GB]": "A launcher based on cascading popup menus",
        "Description[es]": "Un lanzador basado en menús emergentes en cascada",
        "Description[et]": "Kaskaadis hüpikmenüüsid kasutav käivitaja",
        "Description[eu]": "Menu abiaratu agerkariak dituen abiarazle bat",
        "Description[fi]": "Käynnistin, joka perustuu hierarkkisiin ponnahdusvalikoihin",
        "Description[fr]": "Un lanceur utilisant des menus contextuels en cascade",
        "Description[gl]": "Un iniciador baseado en menús emerxentes en fervenza",
        "Description[he]": "משגר יישומים מבוסס על תפריטים מדורגים",
        "Description[hu]": "Felugró menükre épülő alkalmazásindító",
        "Description[id]": "Peluncur berbasis menu sembul riam",
        "Description[it]": "Un lanciatore basato su menu a comparsa in cascata",
        "Description[ko]": "계층 구조 메뉴를 사용하는 실행기",
        "Description[lt]": "Paleidiklis paremtas kaskadiniais iššokančiais meniu",
        "Description[nb]": "En starter basert på oppsprettmenyer i kaskade",
        "Description[nds]": "En Oproper, de op en Boom ut Opdukmenüs opbuut",
        "Description[nl]": "Een starter gebaseerd op achter elkaar liggende popup-menu's",
        "Description[nn]": "Ein startar basert på menyhierarki",
        "Description[pl]": "Aktywator oparty na kaskadowych menu podręcznych",
        "Description[pt]": "Um módulo de lançamento com base em menus em cascata",
        "Description[pt_BR]": "Um lançador com base em menus em cascata",
        "Description[ru]": "Меню запуска приложений на основе выпадающих меню",
        "Description[sk]": "Spúšťač založený na kaskádových ponukách",
        "Description[sl]": "Zaganjalnik, ki temelji na kaskadnih pojavnih menijih",
        "Description[sr@ijekavian]": "Покретач на основу постепених искачућих менија",
        "Description[sr@ijekavianlatin]": "Pokretač na osnovu postepenih iskačućih menija",
        "Description[sr@latin]": "Pokretač na osnovu postepenih iskačućih menija",
        "Description[sr]": "Покретач на основу постепених искачућих менија",
        "Description[sv]": "Ett startprogram baserat på kaskadmenyer",
        "Description[tr]": "Basamaklı açılan menü tabanlı bir başlatıcı",
        "Description[uk]": "Засіб запуску, заснований на вкладених контекстних меню",
        "Description[x-test]": "xxA launcher based on cascading popup menusxx",
        "Description[zh_CN]": "基于层叠弹出窗口的启动器",
        "Description[zh_TW]": "以啟動器為基底的彈出式串連選單",
        "EnabledByDefault": true,
        "Icon": "start-here-kde",
        "Id": "org.kde.plasma.kicker",
        "License": "GPL-2.0+",
        "Name": "Application Menu",
        "Name[ar]": "قائمة التّطبيقات",
        "Name[bs]": "Aplikacijski meni",
        "Name[ca@valencia]": "Menú d'aplicacions",
        "Name[ca]": "Menú d'aplicacions",
        "Name[cs]": "Nabídka aplikací",
        "Name[da]": "Programmenu",
        "Name[de]": "Anwendungsmenü",
        "Name[el]": "Μενού εφαρμογών",
        "Name[en_GB]": "Application Menu",
        "Name[eo]": "Aplikaĵomenuo",
        "Name[es]": "Menú de aplicaciones",
        "Name[et]": "Rakenduste menüü",
        "Name[eu]": "Aplikazio-menua",
        "Name[fi]": "Sovelluskäynnistin",
        "Name[fr]": "Menu des applications",
        "Name[gl]": "Menú de aplicativos",
        "Name[he]": "תפריט יישומים",
        "Name[hu]": "Alkalmazásmenü",
        "Name[ia]": "Menu de application",
        "Name[id]": "Menu Aplikasi",
        "Name[is]": "Forritavalmynd",
        "Name[it]": "Menu delle applicazioni",
        "Name[ja]": "アプリケーションメニュー",
        "Name[ko]": "프로그램 메뉴",
        "Name[lt]": "Programų meniu",
        "Name[mr]": "अनुप्रयोग मेन्यु",
        "Name[nb]": "Programmeny",
        "Name[nds]": "Programmmenü",
        "Name[nl]": "Menu Toepassingen",
        "Name[nn]": "Programmeny",
        "Name[pa]": "ਐਪਲੀਕੇਸ਼ਨ ਮੇਨੂ",
        "Name[pl]": "Menu programów",
        "Name[pt]": "Menu da Aplicação",
        "Name[pt_BR]": "Menu de aplicativos",
        "Name[ru]": "Классическое меню приложений",
        "Name[sk]": "Aplikačné menu",
        "Name[sl]": "Meni programa",
        "Name[sr@ijekavian]": "мени програма",
        "Name[sr@ijekavianlatin]": "meni programa",
        "Name[sr@latin]": "meni programa",
        "Name[sr]": "мени програма",
        "Name[sv]": "Programmeny",
        "Name[tr]": "Uygulama Menüsü",
        "Name[uk]": "Меню програм",
        "Name[vi]": "Trình đơn ứng dụng",
        "Name[x-test]": "xxApplication Menuxx",
        "Name[zh_CN]": "应用程序菜单",
        "Name[zh_TW]": "應用程式選單",
        "ServiceTypes": [
            "Plasma/Applet"
        ],
        "Version": "2.0"
    },
    "X-Plasma-API": "declarativeappletscript",
    "X-Plasma-MainScript": "ui/main.qml",
    "X-Plasma-Provides": [
        "org.kde.plasma.launchermenu"
    ]
}
