{
    "KPlugin": {
        "Authors": [
            {
                "Email": "plasma-devel@kde.org",
                "Name": "The Plasma Team"
            }
        ],
        "Category": "System Information",
        "Dependencies": [
        ],
        "Description": "Reserve empty spaces within the panel.",
        "Description[ar]": "يحجز مساحات فارغة في اللوحة.",
        "Description[bg]": "Запазване на празни места в панела.",
        "Description[bs]": "Rezervišite prazne poteze na panelu.",
        "Description[ca@valencia]": "Reserva espais buits en el plafó.",
        "Description[ca]": "Reserva espais buits en el plafó.",
        "Description[cs]": "Rezervovat prázdné místo v panelu.",
        "Description[da]": "Reservér tom plads i panelet.",
        "Description[de]": "Reserviert freien Platz in der Kontrollleiste.",
        "Description[el]": "Διατήρηση κενού χώρου μέσα στον πίνακα.",
        "Description[en_GB]": "Reserve empty spaces within the panel.",
        "Description[eo]": "Rezervi malplenan spacon en la panelo.",
        "Description[es]": "Reservar espacios vacíos en el panel.",
        "Description[et]": "Tühja ruumi reserveerimine paneelil.",
        "Description[eu]": "Erreserbatu panelaren barruko leku hutsak.",
        "Description[fi]": "Varaa tyhjiä tiloja paneelin sisälle.",
        "Description[fr]": "Réserve des espaces vides dans le tableau de bord",
        "Description[fy]": "Romte yn paniel frijhâlde",
        "Description[ga]": "Cuir spásanna folmha in áirithe sa phainéal.",
        "Description[gl]": "Reserva espazos baleiros no panel.",
        "Description[he]": "משמש לשמירת מקום פנוי על הלוח.",
        "Description[hr]": "Rezervacija praznog mjesta na traci",
        "Description[hu]": "Üres helyet választ le egy panelen belül.",
        "Description[ia]": "Reserva spatios vacue intra le pannello.",
        "Description[id]": "Pesan ruang kosong di panel.",
        "Description[is]": "Taka frá auð svæði innan spjaldsins.",
        "Description[it]": "Lascia dello spazio vuoto nel pannello.",
        "Description[ja]": "パネルに空のスペースを確保します",
        "Description[kk]": "Панельде бос орын қалдырады.",
        "Description[km]": "បម្រុងទុក​ចន្លោះទំនេរ​នៅ​ក្នុង​បន្ទះ ។",
        "Description[kn]": "ಫಲಕದ ಒಳಗೆ ಖಾಲಿ ಜಾಗಗಳನ್ನು ಕಾದಿರಿಸು.",
        "Description[ko]": "패널의 빈 공간을 채웁니다.",
        "Description[lt]": "Skirtukas tuščios vietos sukūrimui pulte.",
        "Description[lv]": "Aizpilda pieejamo tukšo vietu uz paneļa.",
        "Description[mai]": "पटलक अंदर रिक्त स्थान खाली राखू.",
        "Description[mk]": "Резервира празни места во рамките на панелот",
        "Description[ml]": "പാനലിലെ ഒഴിഞ്ഞ ഇടങ്ങള്‍ കരുതിവെയ്ക്കുക.",
        "Description[mr]": "पटल मध्ये रिकाम्या जागा आरक्षित करा.",
        "Description[nb]": "Reserver tomme rom inni panelet.",
        "Description[nds]": "Ruum op't Paneel freehollen",
        "Description[nl]": "Reserveer lege ruimte in het paneel.",
        "Description[nn]": "Reserver tomme plassar i panelet.",
        "Description[pa]": "ਪੈਨਲ ਵਿੱਚ ਖਾਲੀ ਥਾਂ ਬਦਲੋ।",
        "Description[pl]": "Rezerwuje wolną przestrzeń na panelu.",
        "Description[pt]": "Reserva espaços vazios dentro do painel.",
        "Description[pt_BR]": "Reserva espaços vazios no painel.",
        "Description[ro]": "Rezervează spații goale în cadrul panoului.",
        "Description[ru]": "Занимает свободное место на панели",
        "Description[si]": "පැනලය තුල හිස් ඉඩ වෙන් කරන්න",
        "Description[sk]": "Rezervuje prázdne miesto v paneli.",
        "Description[sl]": "Na pultu rezervira prazen prostor.",
        "Description[sr@ijekavian]": "Резервишите празне потезе на панелу.",
        "Description[sr@ijekavianlatin]": "Rezervišite prazne poteze na panelu.",
        "Description[sr@latin]": "Rezervišite prazne poteze na panelu.",
        "Description[sr]": "Резервишите празне потезе на панелу.",
        "Description[sv]": "Reservera tomt utrymme inne i panelen.",
        "Description[th]": "สร้างพื้นที่ว่างไว้ภายในแถบพาเนล",
        "Description[tr]": "Paneldeki boş alanları koruyun.",
        "Description[ug]": "تاختادا بوشلۇق قالدۇرىدۇ.",
        "Description[uk]": "Створює прогалини на панелі.",
        "Description[wa]": "Wårdez des vudes espåces e scriftôr.",
        "Description[x-test]": "xxReserve empty spaces within the panel.xx",
        "Description[zh_CN]": "在面板中保留空间。",
        "Description[zh_TW]": "在面板內保留空間。",
        "EnabledByDefault": true,
        "Id": "org.kde.plasma.panelspacer",
        "License": "GPL-2.0+",
        "Name": "Panel Spacer",
        "Name[ar]": "مُباعِد لوحة",
        "Name[bg]": "Разделител за панела",
        "Name[bs]": "Panelska razmaknica",
        "Name[ca@valencia]": "Espaiador del plafó",
        "Name[ca]": "Espaiador del plafó",
        "Name[cs]": "Mezera v panelu",
        "Name[da]": "Panel-afstandsstykke",
        "Name[de]": "Abstandhalter",
        "Name[el]": "Κενό πίνακα",
        "Name[en_GB]": "Panel Spacer",
        "Name[eo]": "Spacigilo de Panelo",
        "Name[es]": "Espaciador",
        "Name[et]": "Paneeliruumi korraldaja",
        "Name[eu]": "Panel-bereizlea",
        "Name[fi]": "Paneelivälilevy",
        "Name[fr]": "Espaceur de tableau de bord",
        "Name[fy]": "Paniel spaasje",
        "Name[ga]": "Scarthóir Painéil",
        "Name[gl]": "Espazador do panel",
        "Name[he]": "מרווח לוח",
        "Name[hr]": "Razmak na traci",
        "Name[hu]": "Panelelválasztó",
        "Name[ia]": "Spatiator de pannello",
        "Name[id]": "Spasi Panel",
        "Name[is]": "Spjaldabil",
        "Name[it]": "Spaziatore del pannello",
        "Name[ja]": "パネルのスペーサー",
        "Name[kk]": "Панель бос орын бөлгіші",
        "Name[km]": "ចន្លោះ​បន្ទះ",
        "Name[kn]": "ಫಲಕ ಸ್ಪೇಸರ್",
        "Name[ko]": "패널 공백",
        "Name[lt]": "Skydelio skirtukas",
        "Name[lv]": "Paneļa atdalītājs",
        "Name[mai]": "पटल स्पेसर",
        "Name[mk]": "Разграничувач на панели",
        "Name[ml]": "പാളിയില്‍ ഒഴിഞ്ഞസ്ഥലമിടാന്‍",
        "Name[mr]": "पटल स्पेसर",
        "Name[nb]": "Avstandsholder for panel",
        "Name[nds]": "Paneel-Platzmaker",
        "Name[nl]": "Paneelscheider",
        "Name[nn]": "Panelmellomrom",
        "Name[pa]": "ਪੈਨਲ ਸਪੇਸਰ",
        "Name[pl]": "Odstęp w panelu",
        "Name[pt]": "Espaço do Painel",
        "Name[pt_BR]": "Espaçador do painel",
        "Name[ro]": "Spațiator panou",
        "Name[ru]": "Разделитель",
        "Name[si]": "පැනල ඉඩතැබීම",
        "Name[sk]": "Medzera v paneli",
        "Name[sl]": "Praznina za na pult",
        "Name[sr@ijekavian]": "панелска размакница",
        "Name[sr@ijekavianlatin]": "panelska razmaknica",
        "Name[sr@latin]": "panelska razmaknica",
        "Name[sr]": "панелска размакница",
        "Name[sv]": "Panelavskiljare",
        "Name[tg]": "Фосилаи панел",
        "Name[th]": "ตัวสร้างพื้นที่ว่าง",
        "Name[tr]": "Panel Ayırıcı",
        "Name[ug]": "تاختا ئارىلىقى",
        "Name[uk]": "Розпірка панелі",
        "Name[wa]": "Separateu e scriftôr",
        "Name[x-test]": "xxPanel Spacerxx",
        "Name[zh_CN]": "面板间距",
        "Name[zh_TW]": "面板間隔器",
        "ServiceTypes": [
            "Plasma/Applet"
        ],
        "Version": "1.0",
        "Website": "http://plasma.kde.org/"
    },
    "NoDisplay": true,
    "X-Plasma-API": "declarativeappletscript",
    "X-Plasma-MainScript": "ui/main.qml"
}
