{
    "KPlugin": {
        "Authors": [
            {
                "Email": "sebas@kde.org",
                "Name": "Sebastian Kügler"
            }
        ],
        "Category": "Multimedia",
        "Dependencies": [
        ],
        "Description": "Media Player Controls",
        "Description[ar]": "تحكّمات مشغّل الوسائط",
        "Description[bs]": "Kontrole izvođača medija",
        "Description[ca@valencia]": "Controls del reproductor multimèdia",
        "Description[ca]": "Controls del reproductor multimèdia",
        "Description[cs]": "Ovládání přehrávače médií",
        "Description[da]": "Kontroller til medieafspiller",
        "Description[de]": "Steuerung der Medienwiedergabe",
        "Description[el]": "Χειριστήρια αναπαραγωγέα πολυμέσων",
        "Description[en_GB]": "Media Player Controls",
        "Description[es]": "Controles del reproductor multimedia",
        "Description[et]": "Meediamängija juhtelemendid",
        "Description[eu]": "Multimedia-jotzailearen kontrolak",
        "Description[fi]": "Mediasoittimen säätimet",
        "Description[fr]": "Contrôles du lecteur multimédia",
        "Description[gl]": "Controis do reprodutor multimedia",
        "Description[he]": "פקדי ניגון מדיה",
        "Description[hu]": "Médialejátszó vezérlők",
        "Description[ia]": "Controlos de Reproductor de Multimedia",
        "Description[id]": "Kendali Pemain Media",
        "Description[is]": "Stjórntæki margmiðlunarspilara",
        "Description[it]": "Controlli del lettore multimediale",
        "Description[ja]": "メディアプレーヤーコントロール",
        "Description[ko]": "미디어 재생기 제어",
        "Description[lt]": "Kūrinių leistuvės valdikliai",
        "Description[nb]": "Styring for mediespiller",
        "Description[nds]": "Medienafspeler stüern",
        "Description[nl]": "Besturing van mediaspeler",
        "Description[nn]": "Mediespelarkontrollar",
        "Description[pa]": "ਮੀਡਿਆ ਪਲੇਅਰ ਕੰਟਰੋਲ",
        "Description[pl]": "Obsługa odtwarzacza multimedialnego",
        "Description[pt]": "Controlos do Leitor Multimédia",
        "Description[pt_BR]": "Controles do reprodutor de mídia",
        "Description[ru]": "Управление мультимедийным проигрывателем",
        "Description[sk]": "Ovládanie prehrávača médií",
        "Description[sl]": "Nadzorne tipke predstavnostnega predvajalnika",
        "Description[sr@ijekavian]": "Управљање медија плејером",
        "Description[sr@ijekavianlatin]": "Upravljanje medija plejerom",
        "Description[sr@latin]": "Upravljanje medija plejerom",
        "Description[sr]": "Управљање медија плејером",
        "Description[sv]": "Kontroller för mediaspelare",
        "Description[tr]": "Ortam Yürütücüsü Denetimleri",
        "Description[uk]": "Керування мультимедійним програвачем",
        "Description[x-test]": "xxMedia Player Controlsxx",
        "Description[zh_CN]": "控制媒体播放器",
        "Description[zh_TW]": "媒體播放器控制",
        "EnabledByDefault": true,
        "Icon": "applications-multimedia",
        "Id": "org.kde.plasma.mediacontroller",
        "License": "GPL-2.0+",
        "Name": "Media Player",
        "Name[ar]": "مشغّل وسائط",
        "Name[bs]": "Izvođač medija",
        "Name[ca@valencia]": "Reproductor multimèdia",
        "Name[ca]": "Reproductor multimèdia",
        "Name[cs]": "Přehrávač médií",
        "Name[da]": "Medieafspiller",
        "Name[de]": "Medienwiedergabe",
        "Name[el]": "Αναπαραγωγέας πολυμέσων",
        "Name[en_GB]": "Media Player",
        "Name[es]": "Reproductor multimedia",
        "Name[et]": "Meediamängija",
        "Name[eu]": "Multimedia-jotzailea",
        "Name[fi]": "Mediasoitin",
        "Name[fr]": "Lecteur multimédia",
        "Name[gl]": "Reprodutor multimedia",
        "Name[he]": "נגן מדיה",
        "Name[hu]": "Médialejátszó",
        "Name[ia]": "Media Player (Reproductor de Media)",
        "Name[id]": "Pemain Media",
        "Name[is]": "Margmiðlunarspilari",
        "Name[it]": "Lettore multimediale",
        "Name[ja]": "メディアプレーヤー",
        "Name[ko]": "미디어 재생기",
        "Name[lt]": "Kūrinių leistuvė",
        "Name[nb]": "Mediespiller",
        "Name[nds]": "Medienafspeler",
        "Name[nl]": "Mediaspeler",
        "Name[nn]": "Mediespelar",
        "Name[pa]": "ਮੀਡਿਆ ਪਲੇਅਰ",
        "Name[pl]": "Odtwarzacz multimedialny",
        "Name[pt]": "Reprodutor Multimédia",
        "Name[pt_BR]": "Reprodutor de mídia",
        "Name[ru]": "Проигрыватель",
        "Name[sk]": "Prehrávač médií",
        "Name[sl]": "Predstavnostni predvajalnik",
        "Name[sr@ijekavian]": "медија плејер",
        "Name[sr@ijekavianlatin]": "medija plejer",
        "Name[sr@latin]": "medija plejer",
        "Name[sr]": "медија плејер",
        "Name[sv]": "Mediaspelare",
        "Name[tr]": "Ortam Yürütücüsü",
        "Name[uk]": "Програвач",
        "Name[x-test]": "xxMedia Playerxx",
        "Name[zh_CN]": "媒体播放器",
        "Name[zh_TW]": "媒體播放器",
        "ServiceTypes": [
            "Plasma/Applet"
        ],
        "Version": "1.0",
        "Website": "http://plasma.kde.org/"
    },
    "X-Plasma-API": "declarativeappletscript",
    "X-Plasma-DBusActivationService": "org.mpris.MediaPlayer2.*",
    "X-Plasma-MainScript": "ui/main.qml",
    "X-Plasma-NotificationArea": "true",
    "X-Plasma-NotificationAreaCategory": "ApplicationStatus",
    "X-Plasma-Provides": [
        "org.kde.plasma.multimediacontrols"
    ],
    "X-Plasma-StandAloneApp": true
}
