{
    "KPlugin": {
        "Authors": [
            {
                "Email": "mart@kde.org",
                "Name": "Marco Martin"
            }
        ],
        "Description": "Plymouth splash screen",
        "Description[ca@valencia]": "Pantalla de presentació del Plymouth",
        "Description[ca]": "Pantalla de presentació del Plymouth",
        "Description[cs]": "Úvodní obrazovka Plymouth",
        "Description[da]": "Plymouth opstartsskærm",
        "Description[de]": "Plymouth-Startbildschirm",
        "Description[el]": "Αρχική οθόνη Plymouth",
        "Description[en_GB]": "Plymouth splash screen",
        "Description[es]": "Pantalla de arranque de Plymouth",
        "Description[eu]": "Plymouth harrerako pantaila",
        "Description[fi]": "Plymouth-käynnistyskuva",
        "Description[fr]": "Écran de démarrage Plymouth",
        "Description[gl]": "Pantalla de benvida de Plymouth",
        "Description[hu]": "Plymouth betöltőképernyő",
        "Description[it]": "Schermata di avvio di Plymouth",
        "Description[ko]": "Plymouth 시작 화면",
        "Description[nl]": "Opstartscherm van Plymouth",
        "Description[nn]": "Plymouth-oppstartsbilete",
        "Description[pa]": "ਪਲੇਮਾਊਥ ਸਪਲੈਸ਼ ਸਕਰੀਨ",
        "Description[pl]": "Ekran powitalny Plymouth",
        "Description[pt]": "Ecrã inicial do Plymouth",
        "Description[pt_BR]": "Tela de apresentação do Plymouth",
        "Description[ru]": "Экран приветствия Plymouth",
        "Description[sk]": "Úvodná obrazovka Plymouth",
        "Description[sl]": "Pozdravno okno za Plymouth",
        "Description[sr@ijekavian]": "Плимутов уводни екран",
        "Description[sr@ijekavianlatin]": "Plymouthov uvodni ekran",
        "Description[sr@latin]": "Plymouthov uvodni ekran",
        "Description[sr]": "Плимутов уводни екран",
        "Description[sv]": "Plymouth startskärm",
        "Description[tr]": "Plymouth açılış ekranı",
        "Description[uk]": "Вітальна сторінка Plymouth",
        "Description[x-test]": "xxPlymouth splash screenxx",
        "Description[zh_CN]": "Plymouth 闪屏",
        "Description[zh_TW]": "Plymouth 啟動畫面",
        "Icon": "preferences-desktop-display",
        "Id": "kcm_plymouth",
        "License": "GPL",
        "Name": "System Splash",
        "Name[ca@valencia]": "Pantalla de presentació del sistema",
        "Name[ca]": "Pantalla de presentació del sistema",
        "Name[cs]": "Úvodní obrazovka",
        "Name[da]": "Systemets opstartsskærm",
        "Name[de]": "Globalen Startbildschirm für das System",
        "Name[el]": "Αρχική οθόνη συστήματος",
        "Name[en_GB]": "System Splash",
        "Name[es]": "Pantalla de arranque del sistema",
        "Name[eu]": "Sistemaren harrerako pantaila",
        "Name[fi]": "Järjestelmän käynnistyskuva",
        "Name[fr]": "Écran système",
        "Name[gl]": "Benvida do sistema",
        "Name[hu]": "Rendszerbetöltő képernyő",
        "Name[it]": "Schermata di avvio",
        "Name[ko]": "시스템 시작 화면",
        "Name[nl]": "Systeem-opstartscherm",
        "Name[nn]": "Oppstartsbilete",
        "Name[pa]": "ਸਿਸਟਮ ਸਪਲੈਸ਼",
        "Name[pl]": "Ekran powitalny systemu",
        "Name[pt]": "Ecrã Inicial do Sistema",
        "Name[pt_BR]": "Tela de apresentação do sistema",
        "Name[ru]": "Экран загрузки",
        "Name[sk]": "Systémová úvodná obrazovka",
        "Name[sl]": "Sistemsko pozdravno okno",
        "Name[sr@ijekavian]": "Системски уводни екран",
        "Name[sr@ijekavianlatin]": "Sistemski uvodni ekran",
        "Name[sr@latin]": "Sistemski uvodni ekran",
        "Name[sr]": "Системски уводни екран",
        "Name[sv]": "Systemstartskärm",
        "Name[tr]": "Sistem Açılış Ekranı",
        "Name[uk]": "Вітання системи",
        "Name[x-test]": "xxSystem Splashxx",
        "Name[zh_CN]": "系统闪屏",
        "Name[zh_TW]": "系統啟動畫面",
        "ServiceTypes": [
            "KPackage/GenericQML"
        ],
        "Version": "",
        "Website": ""
    },
    "Keywords": "",
    "X-KDE-ParentApp": "",
    "X-Plasma-MainScript": "ui/main.qml",
    "X-Plasma-RemoteLocation": ""
}
