{
    "KPlugin": {
        "Authors": [
            {
                "Email": "heena393@gmail.com",
                "Name": "Heena"
            }
        ],
        "Category": "File System",
        "Dependencies": [
        ],
        "Description": "Provides access to the files sent to trash",
        "Description[ar]": "توفّر نفاذًا إلى الملفّات المرسلة إلى المهملات",
        "Description[ca@valencia]": "Proporciona accés als fitxers enviats a la paperera",
        "Description[ca]": "Proporciona accés als fitxers enviats a la paperera",
        "Description[cs]": "Poskytuje přístup k souborům odeslaným do koše",
        "Description[da]": "Giver adgang til filer der er lagt i affald",
        "Description[de]": "Ermöglicht den Zugriff auf Dateien im Papierkorb",
        "Description[el]": "Παρέχει πρόσβαση σε αρχεία που έχουν σταλεί στα απορρίμματα",
        "Description[en_GB]": "Provides access to the files sent to the wastebin",
        "Description[es]": "Proporciona acceso a los archivos enviados a la papelera",
        "Description[eu]": "Zakarrontzira bidalitako fitxategietara iristeko",
        "Description[fi]": "Tarjoaa pääsyn roskakoriin lähetettyihin tiedostoihin",
        "Description[fr]": "Fournit un accès aux fichiers mis à la corbeille",
        "Description[gl]": "Fornece acceso aos ficheiros do lixo.",
        "Description[he]": "מספק גישה לקבצים שנזרקו לאשפה",
        "Description[hu]": "Hozzáférést biztosít a kukába helyezett fájlokhoz",
        "Description[id]": "Menyediakan akses ke file yang dikirim ke tempat sampah",
        "Description[it]": "Fornisce l'accesso ai file cestinati",
        "Description[ko]": "휴지통에 버린 파일 접근 제공",
        "Description[nl]": "Biedt toegang tot de bestanden verzonden naar de prullenbak",
        "Description[nn]": "Gjev tilgang til filer sende til papirkorga",
        "Description[pl]": "Zapewna dostęp do plików w koszu",
        "Description[pt]": "Oferece o acesso aos ficheiros enviados para o lixo",
        "Description[pt_BR]": "Fornece acesso aos arquivos enviados para a lixeira",
        "Description[ru]": "Доступ в файлам, удалённым в корзину",
        "Description[sk]": "Poskytuje prístup k súborom poslaným do koša",
        "Description[sl]": "Ponuja dostop do datotek v Smeteh",
        "Description[sr@ijekavian]": "Приступ фајловима баченим у смеће",
        "Description[sr@ijekavianlatin]": "Pristup fajlovima bačenim u smeće",
        "Description[sr@latin]": "Pristup fajlovima bačenim u smeće",
        "Description[sr]": "Приступ фајловима баченим у смеће",
        "Description[sv]": "Tillhandahåller åtkomst av filerna skickade till papperskorgen",
        "Description[tr]": "Çöp Kutusuna gönderilen dosyalara erişim sağlar",
        "Description[uk]": "Надає доступ до файлів, які було надіслано до Смітника",
        "Description[x-test]": "xxProvides access to the files sent to trashxx",
        "Description[zh_CN]": "访问回收站中的文件",
        "Description[zh_TW]": "提供存取傳送到資源回收筒的檔案",
        "EnabledByDefault": true,
        "Icon": "user-trash",
        "Id": "org.kde.plasma.trash",
        "License": "GPL-2.0+",
        "Name": "Trashcan",
        "Name[af]": "Gemors",
        "Name[ar]": "سلّة المهملات",
        "Name[ast]": "Papelera",
        "Name[be@latin]": "Śmietnica",
        "Name[bg]": "Кошче",
        "Name[bn]": "আবর্জনা",
        "Name[bs]": "Korpa za smeće",
        "Name[ca@valencia]": "Paperera",
        "Name[ca]": "Paperera",
        "Name[cs]": "Koš",
        "Name[csb]": "Kòsz",
        "Name[da]": "Affald",
        "Name[de]": "Papierkorb",
        "Name[el]": "Κάδος απορριμμάτων",
        "Name[en_GB]": "Wastebin",
        "Name[eo]": "Rubujo",
        "Name[es]": "Papelera",
        "Name[et]": "Prügikast",
        "Name[eu]": "Zakarrontzia",
        "Name[fi]": "Roskakori",
        "Name[fr]": "Corbeille",
        "Name[fy]": "Jiskefet",
        "Name[ga]": "Bruscar",
        "Name[gl]": "Lixo",
        "Name[gu]": "કચરાપેટી",
        "Name[he]": "פח אשפה",
        "Name[hi]": "रद्दी की टोकरी",
        "Name[hne]": "घुरुवा",
        "Name[hr]": "Otpad",
        "Name[hsb]": "Papjernik",
        "Name[hu]": "Kuka",
        "Name[ia]": "Corbe",
        "Name[id]": "Tempat Sampah",
        "Name[is]": "Ruslafata",
        "Name[it]": "Cestino",
        "Name[ja]": "ごみ箱",
        "Name[kk]": "Өшірілгендер",
        "Name[km]": "ធុង​សំរាម",
        "Name[kn]": "ಕಸಬುಟ್ಟಿ",
        "Name[ko]": "휴지통",
        "Name[ku]": "Qutiya Sergo",
        "Name[lt]": "Šiukšlinė",
        "Name[lv]": "Miskaste",
        "Name[mk]": "Корпа",
        "Name[ml]": "ചവറ്റുകുട്ട",
        "Name[mr]": "कचरापेटी",
        "Name[nb]": "Søppelbøtte",
        "Name[nds]": "Affalltünn",
        "Name[nl]": "Prullenbak",
        "Name[nn]": "Papirkorg",
        "Name[or]": "Trashcan",
        "Name[pa]": "ਰੱਦੀ-ਟੋਕਰੀ",
        "Name[pl]": "Kosz",
        "Name[pt]": "Caixote do Lixo",
        "Name[pt_BR]": "Lixeira",
        "Name[ro]": "Coș de gunoi",
        "Name[ru]": "Корзина",
        "Name[si]": "ඉවතලන බඳුන",
        "Name[sk]": "Odpadkový kôš",
        "Name[sl]": "Smetnjak",
        "Name[sr@ijekavian]": "корпа за смеће",
        "Name[sr@ijekavianlatin]": "korpa za smeće",
        "Name[sr@latin]": "korpa za smeće",
        "Name[sr]": "корпа за смеће",
        "Name[sv]": "Papperskorg",
        "Name[ta]": "அகற்றிடம்",
        "Name[te]": "చెత్తబుట్ట",
        "Name[tg]": "Ахлотдон",
        "Name[th]": "ถังขยะ",
        "Name[tr]": "Çöp Kutusu",
        "Name[ug]": "ئەخلەتخانا",
        "Name[uk]": "Смітник",
        "Name[uz@cyrillic]": "Чиқиндилар қутиси",
        "Name[uz]": "Chiqindilar qutisi",
        "Name[wa]": "Batch ås mannestés",
        "Name[x-test]": "xxTrashcanxx",
        "Name[zh_CN]": "回收站",
        "Name[zh_TW]": "資源回收筒",
        "ServiceTypes": [
            "Plasma/Applet"
        ],
        "Version": "1.0",
        "Website": "http://plasma.kde.org/"
    },
    "X-Plasma-API": "declarativeappletscript",
    "X-Plasma-DropUrlPatterns": [
        "trash:/"
    ],
    "X-Plasma-MainScript": "ui/main.qml",
    "X-Plasma-Provides": [
        "org.kde.plasma.trash"
    ]
}
