{
    "KPlugin": {
        "Authors": [
            {
                "Email": "mart@kde.org",
                "Name": "Marco Martin"
            }
        ],
        "Category": "",
        "Description": "Desktop view furniture",
        "Description[ar]": "أثاث منظور سطح المكتب",
        "Description[bs]": "Namjesti pogled radne površine",
        "Description[ca@valencia]": "Accessori de vista d'escriptori",
        "Description[ca]": "Accessori de vista d'escriptori",
        "Description[da]": "Møbler til skrivebordsvisning",
        "Description[de]": "Einrichtung der Ansicht einer Arbeitsfläche",
        "Description[el]": "Παρουσίαση της επιφάνειας εργασίας",
        "Description[en_GB]": "Desktop view furniture",
        "Description[es]": "Accesorio de vista del escritorio",
        "Description[et]": "Töölauavaate sisustus",
        "Description[eu]": "Mahaigaina atontzeko tresnak",
        "Description[fi]": "Työpöydän sisustus",
        "Description[fr]": "Aménagement du bureau",
        "Description[gl]": "Contidos da vista do escritorio",
        "Description[hu]": "Munkaasztal nézet bútor",
        "Description[ia]": "Vista de accessorio de Scriptorio",
        "Description[id]": "Furnitur tampilan desktop",
        "Description[it]": "Componenti della vista del desktop",
        "Description[kk]": "Үстел көрініс әбзелдері",
        "Description[ko]": "데스크톱 보기 가구",
        "Description[lt]": "Darbalaukio vaizdo baldai",
        "Description[nb]": "Skrivebord, vis møbler",
        "Description[nds]": "Möbelmang för Schriefdisch-Ansicht",
        "Description[nl]": "Meubilair voor weergave op het bureaublad",
        "Description[nn]": "Skrivebordsvisingmøblar",
        "Description[pa]": "ਡੈਸਕਟਾਪ ਵੇਖਣ ਫਰਨੀਚਰ",
        "Description[pl]": "Widok umeblowania pulpitu",
        "Description[pt]": "Disposição do ecrã",
        "Description[pt_BR]": "Acessório de visualização da área de trabalho",
        "Description[ru]": "Компоненты пользовательского интерфейса Plasma",
        "Description[sk]": "Zobrazenie plochy nábytok",
        "Description[sl]": "Delovna površina prikaza namizja",
        "Description[sr@ijekavian]": "Намештај приказа површи",
        "Description[sr@ijekavianlatin]": "Nameštaj prikaza površi",
        "Description[sr@latin]": "Nameštaj prikaza površi",
        "Description[sr]": "Намештај приказа површи",
        "Description[sv]": "Visa skrivbordsmöbler",
        "Description[tr]": "Masaüstü mobilya görünümü",
        "Description[uk]": "Компоненти для перегляду стільниці",
        "Description[vi]": "Xem nội dung bàn làm việc",
        "Description[x-test]": "xxDesktop view furniturexx",
        "Description[zh_CN]": "桌面视图家具",
        "Description[zh_TW]": "桌面檢視設備",
        "Icon": "user-desktop",
        "Id": "org.kde.plasma.desktop",
        "License": "GPL-2.0+",
        "Name": "Desktop",
        "Name[af]": "Werkskerm",
        "Name[ar]": "سطح المكتب",
        "Name[be@latin]": "Rabočy stoł",
        "Name[be]": "Працоўны стол",
        "Name[bg]": "Работен плот",
        "Name[bn]": "ডেস্কটপ",
        "Name[bn_IN]": "ডেস্কটপ",
        "Name[br]": "Gorretaol",
        "Name[bs]": "Radna površina",
        "Name[ca@valencia]": "Escriptori",
        "Name[ca]": "Escriptori",
        "Name[cs]": "Pracovní plocha",
        "Name[csb]": "Pùlt",
        "Name[cy]": "Penbwrdd",
        "Name[da]": "Skrivebord",
        "Name[de]": "Arbeitsfläche",
        "Name[el]": "Επιφάνεια εργασίας",
        "Name[en_GB]": "Desktop",
        "Name[eo]": "Labortablo",
        "Name[es]": "Escritorio",
        "Name[et]": "Töölaud",
        "Name[eu]": "Mahaigaina",
        "Name[fa]": "رومیزی",
        "Name[fi]": "Työpöytä",
        "Name[fr]": "Bureau",
        "Name[fy]": "Buroblêd",
        "Name[ga]": "Deasc",
        "Name[gl]": "Escritorio",
        "Name[gu]": "ડેસ્કટોપ",
        "Name[he]": "שולחן עבודה",
        "Name[hi]": "डेस्कटॉप",
        "Name[hne]": "डेस्कटाप",
        "Name[hr]": "Radna površina",
        "Name[hsb]": "Dźěłowy powjerch",
        "Name[hu]": "Munkaasztal",
        "Name[ia]": "Scriptorio",
        "Name[id]": "Desktop",
        "Name[is]": "Skjáborð",
        "Name[it]": "Desktop",
        "Name[ja]": "デスクトップ",
        "Name[ka]": "სამუშაო დაფა",
        "Name[kk]": "Жұмыс үстелі",
        "Name[kn]": "ಗಣಕತೆರೆ",
        "Name[ko]": "데스크톱",
        "Name[ku]": "Sermasê",
        "Name[lt]": "Darbalaukis",
        "Name[mai]": "डेस्कटाप",
        "Name[mk]": "Работна површина",
        "Name[ml]": "പണിയിടം",
        "Name[mr]": "डेस्कटॉप",
        "Name[ms]": "Ruang Kerja",
        "Name[nb]": "Skrivebord",
        "Name[nds]": "Schriefdisch",
        "Name[ne]": "डेस्कटप",
        "Name[nl]": "Bureaublad",
        "Name[nn]": "Skrivebord",
        "Name[oc]": "Burèu",
        "Name[or]": "ଡ଼େସ୍କଟପ",
        "Name[pa]": "ਡੈਸਕਟਾਪ",
        "Name[pl]": "Pulpit",
        "Name[pt]": "Ambiente de Trabalho",
        "Name[pt_BR]": "Área de Trabalho",
        "Name[ro]": "Birou",
        "Name[ru]": "Рабочий стол по умолчанию",
        "Name[se]": "Čállinbeavdi",
        "Name[si]": "වැඩතලය",
        "Name[sk]": "Plocha",
        "Name[sl]": "Namizje",
        "Name[sr@ijekavian]": "Површ",
        "Name[sr@ijekavianlatin]": "Površ",
        "Name[sr@latin]": "Površ",
        "Name[sr]": "Површ",
        "Name[sv]": "Skrivbord",
        "Name[ta]": "பணிமேசை",
        "Name[te]": "రంగస్ఠలం",
        "Name[tg]": "Мизи корӣ",
        "Name[th]": "พื้นที่ทำงาน",
        "Name[tr]": "Masaüstü",
        "Name[uk]": "Стільниця",
        "Name[uz@cyrillic]": "Иш столи",
        "Name[uz]": "Ish stoli",
        "Name[vi]": "Màn hình nền",
        "Name[wa]": "Sicribanne",
        "Name[x-test]": "xxDesktopxx",
        "Name[xh]": "Desktop",
        "Name[zh_CN]": "桌面",
        "Name[zh_TW]": "桌面",
        "ServiceTypes": [
            "Plasma/Shell"
        ],
        "Version": "",
        "Website": ""
    },
    "Keywords": "",
    "X-KDE-ParentApp": "",
    "X-Plasma-MainScript": "layout.js"
}
