{
    "KPlugin": {
        "Authors": [
            {
                "Email": "mart@kde.org",
                "Name": "Marco Martin"
            }
        ],
        "Category": "",
        "Description": "Wallpaper view for images",
        "Description[ca@valencia]": "Vista del fons d'escriptori per a les imatges",
        "Description[ca]": "Vista del fons d'escriptori per a les imatges",
        "Description[da]": "Baggrundsbilledevisning til billeder",
        "Description[de]": "Ansicht für Hintergrundbilder",
        "Description[en_GB]": "Wallpaper view for images",
        "Description[es]": "Visor de imágenes para el fondo del escritorio",
        "Description[eu]": "Irudientzako horma-paper ikuspegia",
        "Description[fi]": "Kuvatausta",
        "Description[fr]": "Affichage d'images en fond d'écran",
        "Description[gl]": "Vista de fondo de pantalla para imaxes.",
        "Description[hu]": "Háttérkép nézet képekhez",
        "Description[it]": "Vista delle immagini di sfondo",
        "Description[ko]": "마음에 드는 그림을 배경으로 사용",
        "Description[nl]": "Achtergrondweergave voor afbeeldingen",
        "Description[nn]": "Bakgrunnsbiletevising for bilete",
        "Description[pl]": "Widok tapety dla obrazów",
        "Description[pt]": "Área de imagens do Papel de Parede",
        "Description[pt_BR]": "Visualização do papel de parede para imagens",
        "Description[ru]": "Изображение в качестве обоев рабочего стола",
        "Description[sk]": "Pohľad tapety pre obrázky",
        "Description[sl]": "Pogled slike ozadja za slike",
        "Description[sr@ijekavian]": "Тапетни приказ за слике",
        "Description[sr@ijekavianlatin]": "Tapetni prikaz za slike",
        "Description[sr@latin]": "Tapetni prikaz za slike",
        "Description[sr]": "Тапетни приказ за слике",
        "Description[sv]": "Skrivbordsunderlägg med bilder",
        "Description[tr]": "Resimler için duvar kağıdı görünümü",
        "Description[uk]": "Тло із зображень",
        "Description[x-test]": "xxWallpaper view for imagesxx",
        "Description[zh_CN]": "图像壁纸视图",
        "Icon": "preferences-desktop-wallpaper",
        "Id": "org.kde.image",
        "License": "GPLv2+",
        "MimeTypes": [
            "image/jpeg",
            "image/png",
            "image/svg+xml",
            "image/svg+xml-compressed",
            "image/bmp"
        ],
        "Name": "Image",
        "Name[ar]": "صورة",
        "Name[be@latin]": "Vyjava",
        "Name[bg]": "Изображение",
        "Name[bn]": "ছবি",
        "Name[bn_IN]": "ছবি",
        "Name[bs]": "Slika",
        "Name[ca@valencia]": "Imatge",
        "Name[ca]": "Imatge",
        "Name[cs]": "Obrázek",
        "Name[csb]": "Òbrôzk",
        "Name[da]": "Billede",
        "Name[de]": "Bild",
        "Name[el]": "Εικόνα",
        "Name[en_GB]": "Image",
        "Name[eo]": "Bildo",
        "Name[es]": "Imagen",
        "Name[et]": "Pilt",
        "Name[eu]": "Irudia",
        "Name[fa]": "تصویر",
        "Name[fi]": "Kuva",
        "Name[fr]": "Image",
        "Name[fy]": "Ofbylding",
        "Name[ga]": "Íomhá",
        "Name[gl]": "Imaxe",
        "Name[gu]": "ચિત્ર",
        "Name[he]": "תמונה",
        "Name[hi]": "छवि",
        "Name[hne]": "फोटो",
        "Name[hr]": "Slika",
        "Name[hu]": "Kép",
        "Name[ia]": "Image",
        "Name[id]": "Gambar",
        "Name[is]": "Mynd",
        "Name[it]": "Immagine",
        "Name[ja]": "画像",
        "Name[ka]": "გამოსახულება",
        "Name[kk]": "Кескіні",
        "Name[km]": "រូបភាព",
        "Name[kn]": "ಬಿಂಬ (ಇಮೇಜ್)",
        "Name[ko]": "그림",
        "Name[ku]": "Wêne",
        "Name[lt]": "Paveikslėlis",
        "Name[lv]": "Attēls",
        "Name[mai]": "चित्र",
        "Name[mk]": "Слика",
        "Name[ml]": "ചിത്രം",
        "Name[mr]": "प्रतिमा",
        "Name[nb]": "Bilde",
        "Name[nds]": "Bild",
        "Name[nl]": "Afbeelding",
        "Name[nn]": "Bilete",
        "Name[or]": "ପ୍ରତିଛବି",
        "Name[pa]": "ਚਿੱਤਰ",
        "Name[pl]": "Obraz",
        "Name[pt]": "Imagem",
        "Name[pt_BR]": "Imagem",
        "Name[ro]": "Imagine",
        "Name[ru]": "Изображение",
        "Name[si]": "පිංතූරය",
        "Name[sk]": "Obrázok",
        "Name[sl]": "Slika",
        "Name[sr@ijekavian]": "слика",
        "Name[sr@ijekavianlatin]": "slika",
        "Name[sr@latin]": "slika",
        "Name[sr]": "слика",
        "Name[sv]": "Bild",
        "Name[ta]": "Image",
        "Name[tg]": "Тасвир",
        "Name[th]": "ภาพ",
        "Name[tr]": "Resim",
        "Name[ug]": "سۈرەت",
        "Name[uk]": "Зображення",
        "Name[vi]": "Ảnh",
        "Name[wa]": "Imådje",
        "Name[x-test]": "xxImagexx",
        "Name[zh_CN]": "图像",
        "Name[zh_TW]": "影像",
        "ServiceTypes": [
            "Plasma/Wallpaper"
        ],
        "Version": "",
        "Website": ""
    },
    "Keywords": "",
    "MimeType": "image/jpeg;image/png;image/svg+xml;image/svg+xml-compressed;image/bmp;",
    "X-KDE-ParentApp": "",
    "X-Plasma-DropMimeTypes": [
        "image/jpeg",
        "image/png",
        "image/svg+xml",
        "image/svg+xml-compressed",
        "image/bmp"
    ],
    "X-Plasma-MainScript": "ui/main.qml"
}
