{
    "KPlugin": {
        "Authors": [
            {
                "Email": "plasma-devel@kde.org",
                "Name": "The Plasma Team"
            }
        ],
        "Category": "Online Services",
        "Dependencies": [
        ],
        "Description": "Paste text/images to a remote server",
        "Description[ar]": "الصق نص/صور في خادم بعيد",
        "Description[bs]": "Umeće tekst/slike na udaljeni server",
        "Description[ca@valencia]": "Enganxa text/imatges en un servidor remot",
        "Description[ca]": "Enganxa text/imatges en un servidor remot",
        "Description[cs]": "Vložit text/obrázky na vzdálený server",
        "Description[da]": "Indsæt tekst/billeder på en ekstern server.",
        "Description[de]": "Text und Bilder auf einen entfernten Server hochladen",
        "Description[el]": "Επικόλληση κειμένου/εικόνων σε έναν απομακρυσμένο εξυπηρετητή",
        "Description[en_GB]": "Paste text/images to a remote server",
        "Description[es]": "Pegar texto/imágenes a un servidor remoto",
        "Description[et]": "Tekstide/piltide kopeerimine võrguserverisse",
        "Description[eu]": "Itsatsi testua/irudiak urruneko zerbitzari batera",
        "Description[fi]": "Liittää tekstiä tai kuvaa etäpalvelimeen",
        "Description[fr]": "Colle du texte ou des images vers un serveur distant",
        "Description[ga]": "Greamaigh téacs/íomhánna ar fhreastalaí cianda",
        "Description[gl]": "Pega texto/imaxes nun servidor remoto",
        "Description[he]": "מעתיק טקסט או תמונות לשרת חיצוני",
        "Description[hr]": "Zalijepi tekst/slike na udaljeni poslužitelj",
        "Description[hu]": "Szöveg vagy kép beillesztése távoli kiszolgálóra",
        "Description[is]": "Líma texta/myndir yfir á fjarlægan þjón",
        "Description[it]": "Incolla testo/immagini su un server remoto",
        "Description[ja]": "テキストや画像をリモートサーバに貼り付けます",
        "Description[kk]": "Мәтін/Кескінді қашық серверінде орналастыру",
        "Description[km]": "បិទភ្ជាប់​អត្ថបទ/រូបភាព​ទៅ​ម៉ាស៊ីនបម្រើ​ពីចម្ងាយ",
        "Description[ko]": "원격 서버에 텍스트/이미지 붙여넣기",
        "Description[ku]": "Nivîs/wêne yan pêve bike di pêşkêşkera dûr de",
        "Description[lt]": "Tekstą/paveikslėlius talpinti nutolusiame serveryje",
        "Description[lv]": "Ielīmēt tekstu/attēlus attālinātā serverī",
        "Description[mr]": "दूरस्थ सर्व्हरवर मजकूर / प्रतिमा चिटकवा",
        "Description[nb]": "Lim «inn» tekst/bilder til en nettverkstjener",
        "Description[nds]": "Text oder Biller op en feern Server infögen",
        "Description[nl]": "Tekst/afbeeldingen plakken op een externe server",
        "Description[nn]": "Kopier tekst og bilete til tenar på nettet",
        "Description[pa]": "ਟੈਕਸਟ/ਚਿੱਤਰ ਰਿਮੋਟ ਸਰਵਰ ਉੱਤੇ ਚੇਪੋ",
        "Description[pl]": "Wkleja teksty/obrazy na zdalny serwer",
        "Description[pt]": "Colar o texto/imagens num servidor remoto",
        "Description[pt_BR]": "Cola textos e imagens em um servidor remoto",
        "Description[ro]": "Lipește text/imagini spre un server distant",
        "Description[ru]": "Временная публикация текста и изображений на удалённых серверах",
        "Description[sk]": "Vloženie textu/obrázkov na vzdialený server",
        "Description[sl]": "Prilepi besedilo/slike na oddaljeni strežnik",
        "Description[sr@ijekavian]": "Наљепљује текст и слике на удаљени сервер",
        "Description[sr@ijekavianlatin]": "Naljepljuje tekst i slike na udaljeni server",
        "Description[sr@latin]": "Nalepljuje tekst i slike na udaljeni server",
        "Description[sr]": "Налепљује текст и слике на удаљени сервер",
        "Description[sv]": "Klistra in text eller bilder på en fjärrserver",
        "Description[th]": "แปะข้อความ/รูปภาพ ไปยังเครื่อแม่ข่ายทางไกล",
        "Description[tr]": "Bir uzak sunucuya metin/resim yapıştır",
        "Description[uk]": "Викласти текст/зображення на віддалений сервер",
        "Description[wa]": "Aclaper do tecse/imådjes viè on sierveu då lon",
        "Description[x-test]": "xxPaste text/images to a remote serverxx",
        "Description[zh_CN]": "向远程服务器粘贴文本/图像",
        "Description[zh_TW]": "將文字/影像貼到遠端伺服器",
        "EnabledByDefault": true,
        "FormFactors": [
            "desktop",
            "tablet"
        ],
        "Icon": "emblem-shared-symbolic",
        "Id": "org.kde.plasma.quickshare",
        "License": "GPL-2.0+",
        "Name": "Quick Share",
        "Name[ar]": "مشاركة سريعة",
        "Name[bs]": "Quick Share",
        "Name[ca@valencia]": "Comparteix ràpid",
        "Name[ca]": "Comparteix ràpid",
        "Name[cs]": "Rychlé sdílení",
        "Name[da]": "Hurtigdeling",
        "Name[de]": "Schnellfreigabe",
        "Name[el]": "Γρήγορος διαμοιρασμός",
        "Name[en_GB]": "Quick Share",
        "Name[es]": "Compartición rápida",
        "Name[et]": "Kiirjagaja",
        "Name[eu]": "Partekatze azkarra",
        "Name[fi]": "Pikajakaminen",
        "Name[fr]": "Partage rapide",
        "Name[gl]": "Compartir rapidamente",
        "Name[he]": "שיוף מהיר",
        "Name[hu]": "Gyors megosztás",
        "Name[it]": "Condivisione rapida",
        "Name[ko]": "빠른 공유",
        "Name[lt]": "Greitas dalinimasis",
        "Name[mr]": "जलद शेअर",
        "Name[nb]": "Hurtigdeling",
        "Name[nds]": "Gau delen",
        "Name[nl]": "Snel Share maken",
        "Name[nn]": "Snøggdeling",
        "Name[pl]": "Szybkie udostępnianie",
        "Name[pt]": "Partilha Rápida",
        "Name[pt_BR]": "Compartilhamento rápido",
        "Name[ru]": "Быстрая публикация",
        "Name[sk]": "Rýchle zdieľanie",
        "Name[sl]": "Hitra izmenjava",
        "Name[sr@ijekavian]": "брзо дељење",
        "Name[sr@ijekavianlatin]": "brzo deljenje",
        "Name[sr@latin]": "brzo deljenje",
        "Name[sr]": "брзо дељење",
        "Name[sv]": "Snabbdelning",
        "Name[tr]": "Hızlı Paylaş",
        "Name[uk]": "Швидке оприлюднення",
        "Name[x-test]": "xxQuick Sharexx",
        "Name[zh_CN]": "快速共享",
        "Name[zh_TW]": "快速分享",
        "ServiceTypes": [
            "Plasma/Applet"
        ],
        "Version": "2.0",
        "Website": "http://plasma.kde.org/"
    },
    "X-Plasma-API": "declarativeappletscript",
    "X-Plasma-MainScript": "ui/main.qml",
    "X-Plasma-RequiredExtensions": [
        "ExternalScripts"
    ],
    "X-Plasma-Requires-FileDialog": "Unused",
    "X-Plasma-Requires-LaunchApp": "Required",
    "X-Plasma-StandAloneApp": true
}
