{
    "KPlugin": {
        "Authors": [
            {
                "Email": "mart@kde.org",
                "Name": "Marco Martin"
            }
        ],
        "Category": "System Information",
        "Dependencies": [
        ],
        "Description": "Monitor the load of the CPUs",
        "Description[ar]": "راقِب حِمل المعالجات لديك",
        "Description[ca@valencia]": "Controla la càrrega de les CPU",
        "Description[ca]": "Controla la càrrega de les CPU",
        "Description[cs]": "Monitorovat zatížení procesor(ů)",
        "Description[da]": "Overvåg belastningen af CPU'erne",
        "Description[de]": "Überwacht die Auslastung der Prozessoren",
        "Description[el]": "Παρακολούθηση του φόρτου των ΚΜΕ",
        "Description[en_GB]": "Monitor the load of the CPUs",
        "Description[es]": "Monitoriza la carga de las CPU",
        "Description[et]": "Protsessorite koormuse jälgimine",
        "Description[eu]": "Gainbegiratu PUZen zama",
        "Description[fi]": "Seuraa suoritinten kuormaa",
        "Description[fr]": "Surveille la charge des processeurs",
        "Description[gl]": "Vixiar a carga das CPU.",
        "Description[he]": "צג שימוש במעבד",
        "Description[hu]": "A processzorterhelés monitorozása",
        "Description[is]": "Fylgjast með álagi á örgjörva",
        "Description[it]": "Indica il carico dei processori",
        "Description[ja]": "CPU の負荷を監視します",
        "Description[ko]": "CPU 사용량 모니터",
        "Description[lt]": "Stebėti CPU apkrovą",
        "Description[nl]": "Het gebruik van de CPU's monitoren",
        "Description[nn]": "Overvaking av prosessorbruk",
        "Description[pa]": "CPU ਦੇ ਲੋਡ ਦੀ ਨਿਗਰਾਨੀ",
        "Description[pl]": "Monitoruje obciążenie procesora",
        "Description[pt]": "Vigia a carga dos CPU's",
        "Description[pt_BR]": "Monitora a carga das CPUs",
        "Description[ru]": "Мониторинг степени загрузки процессоров",
        "Description[sk]": "Kontrola zaťaženia CPU",
        "Description[sl]": "Nadzor nad obremenitvijo procesorjev",
        "Description[sr@ijekavian]": "Надгледајте оптерећење процесора",
        "Description[sr@ijekavianlatin]": "Nadgledajte opterećenje procesora",
        "Description[sr@latin]": "Nadgledajte opterećenje procesora",
        "Description[sr]": "Надгледајте оптерећење процесора",
        "Description[sv]": "Övervaka processorernas last",
        "Description[tr]": "İşlemcilerin yüklerini izleyin",
        "Description[uk]": "Монітор навантаження на процесори",
        "Description[x-test]": "xxMonitor the load of the CPUsxx",
        "Description[zh_CN]": "监视 CPU 负载",
        "Description[zh_TW]": "監視 CPU 的負載",
        "FormFactors": [
            "tablet",
            "mediacenter",
            "desktop"
        ],
        "Icon": "cpu",
        "Id": "org.kde.plasma.systemmonitor.cpu",
        "License": "GPL-2.0+",
        "Name": "CPU Load Monitor",
        "Name[ar]": "مرقاب حِمل المعالج",
        "Name[ca@valencia]": "Monitor de càrrega de la CPU",
        "Name[ca]": "Monitor de càrrega de la CPU",
        "Name[cs]": "Monitor zatížení CPU",
        "Name[da]": "Overvågning af CPU-belastning",
        "Name[de]": "Monitor für Prozessor-Last",
        "Name[el]": "Επόπτης φόρτου ΚΜΕ",
        "Name[en_GB]": "CPU Load Monitor",
        "Name[es]": "Monitor de carga de la CPU",
        "Name[et]": "Protsessori koormuse jälgija",
        "Name[eu]": "PUZ zamaren begiralea",
        "Name[fi]": "Suoritinkäyttö",
        "Name[fr]": "Surveillance du processeur",
        "Name[gl]": "Vixilante da carga da CPU",
        "Name[he]": "מנטר מעבד",
        "Name[hu]": "Processzorfigyelő",
        "Name[is]": "Eftirlit með notkun örgjörva",
        "Name[it]": "Monitor del carico del processore",
        "Name[ja]": "CPU 負荷モニタ",
        "Name[ko]": "CPU 사용량 모니터",
        "Name[lt]": "CPU apkrovos stebėtojas",
        "Name[nl]": "Monitor voor CPU-gebruik",
        "Name[nn]": "Prosessorlast-overvaking",
        "Name[pa]": "CPU ਲੋਡ ਲਈ ਨਿਗਰਾਨ",
        "Name[pl]": "Monitor obciążenia procesora",
        "Name[pt]": "Monitor de Carga do CPU",
        "Name[pt_BR]": "Monitor de carga da CPU",
        "Name[ru]": "Монитор нагрузки процессора",
        "Name[sk]": "Monitor zaťaženia CPU",
        "Name[sl]": "Nadzornik obremenitve procesorja",
        "Name[sr@ijekavian]": "надзор оптерећења процесора",
        "Name[sr@ijekavianlatin]": "nadzor opterećenja procesora",
        "Name[sr@latin]": "nadzor opterećenja procesora",
        "Name[sr]": "надзор оптерећења процесора",
        "Name[sv]": "Övervakning av processorlast",
        "Name[tr]": "İşlemci Yükü İzleyici",
        "Name[uk]": "Використання процесорів",
        "Name[x-test]": "xxCPU Load Monitorxx",
        "Name[zh_CN]": "CPU 负载监视器",
        "Name[zh_TW]": "CPU 負載監視器",
        "ServiceTypes": [
            "Plasma/Applet"
        ],
        "Version": "1.0",
        "Website": ""
    },
    "X-Plasma-API": "declarativeappletscript",
    "X-Plasma-MainScript": "ui/cpu.qml",
    "X-Plasma-StandAloneApp": true
}
